{
    "page": 3,
    "total_results": 356444,
    "total_pages": 17823,
    "results": [
        {
            "vote_count": 3670,
            "id": 315837,
            "video": false,
            "vote_average": 5.9,
            "title": "Ghost in the Shell",
            "popularity": 62.163751,
            "poster_path": "https://image.tmdb.org/t/p/w300/myRzRzCxdfUWjkJWgpHHZ1oGkJd.jpg",
            "original_language": "en",
            "original_title": "Ghost in the Shell",
            "genre_ids": [
                28,
                878,
                53
            ],
            "backdrop_path": "/9WmLfENjz1RuL0MSMZAG3qjoYWR.jpg",
            "adult": false,
            "overview": "In the near future, Major is the first of her kind: a human saved from a terrible crash, then cyber-enhanced to be a perfect soldier devoted to stopping the world's most dangerous criminals.",
            "release_date": "2017-03-29"
        },
        {
            "vote_count": 3895,
            "id": 254128,
            "video": false,
            "vote_average": 6,
            "title": "San Andreas",
            "popularity": 62.061528,
            "poster_path": "https://image.tmdb.org/t/p/w300/qey0tdcOp9kCDdEZuJ87yE3crSe.jpg",
            "original_language": "en",
            "original_title": "San Andreas",
            "genre_ids": [
                28,
                18,
                53
            ],
            "backdrop_path": "/cUfGqafAVQkatQ7N4y08RNV3bgu.jpg",
            "adult": false,
            "overview": "In the aftermath of a massive earthquake in California, a rescue-chopper pilot makes a dangerous journey across the state in order to rescue his estranged daughter.",
            "release_date": "2015-05-27"
        },
        {
            "vote_count": 6597,
            "id": 76338,
            "video": false,
            "vote_average": 6.7,
            "title": "Thor: The Dark World",
            "popularity": 60.905235,
            "poster_path": "https://image.tmdb.org/t/p/w300/bnX5PqAdQZRXSw3aX3DutDcdso5.jpg",
            "original_language": "en",
            "original_title": "Thor: The Dark World",
            "genre_ids": [
                28,
                12,
                14
            ],
            "backdrop_path": "/3FweBee0xZoY77uO1bhUOlQorNH.jpg",
            "adult": false,
            "overview": "Thor fights to restore order across the cosmos… but an ancient race led by the vengeful Malekith returns to plunge the universe back into darkness. Faced with an enemy that even Odin and Asgard cannot withstand, Thor must embark on his most perilous and personal journey yet, one that will reunite him with Jane Foster and force him to sacrifice everything to save us all.",
            "release_date": "2013-10-29"
        },
        {
            "vote_count": 4818,
            "id": 262500,
            "video": false,
            "vote_average": 6.2,
            "title": "Insurgent",
            "popularity": 60.026714,
            "poster_path": "https://image.tmdb.org/t/p/w300/6w1VjTPTjTaA5oNvsAg0y4H6bou.jpg",
            "original_language": "en",
            "original_title": "Insurgent",
            "genre_ids": [
                28,
                12,
                878,
                53
            ],
            "backdrop_path": "/L5QRL1O3fGs2hH1LbtYyVl8Tce.jpg",
            "adult": false,
            "overview": "Beatrice Prior must confront her inner demons and continue her fight against a powerful alliance which threatens to tear her society apart.",
            "release_date": "2015-03-18"
        },
        {
            "vote_count": 9143,
            "id": 209112,
            "video": false,
            "vote_average": 5.8,
            "title": "Batman v Superman: Dawn of Justice",
            "popularity": 59.684925,
            "poster_path": "https://image.tmdb.org/t/p/w300/cGOPbv9wA5gEejkUN892JrveARt.jpg",
            "original_language": "en",
            "original_title": "Batman v Superman: Dawn of Justice",
            "genre_ids": [
                28,
                12,
                14
            ],
            "backdrop_path": "/vsjBeMPZtyB7yNsYY56XYxifaQZ.jpg",
            "adult": false,
            "overview": "Fearing the actions of a god-like Super Hero left unchecked, Gotham City’s own formidable, forceful vigilante takes on Metropolis’s most revered, modern-day savior, while the world wrestles with what sort of hero it really needs. And with Batman and Superman at war with one another, a new threat quickly arises, putting mankind in greater danger than it’s ever known before.",
            "release_date": "2016-03-23"
        },
        {
            "vote_count": 3537,
            "id": 158852,
            "video": false,
            "vote_average": 6.2,
            "title": "Tomorrowland",
            "popularity": 59.413085,
            "poster_path": "https://image.tmdb.org/t/p/w300/69Cz9VNQZy39fUE2g0Ggth6SBTM.jpg",
            "original_language": "en",
            "original_title": "Tomorrowland",
            "genre_ids": [
                12,
                10751,
                9648,
                878
            ],
            "backdrop_path": "/fQbc5XuB4vWA9gnY1CmyxFaOufF.jpg",
            "adult": false,
            "overview": "Bound by a shared destiny, a bright, optimistic teen bursting with scientific curiosity and a former boy-genius inventor jaded by disillusionment embark on a danger-filled mission to unearth the secrets of an enigmatic place somewhere in time and space that exists in their collective memory as \"Tomorrowland.\"",
            "release_date": "2015-05-19"
        },
        {
            "vote_count": 5762,
            "id": 374720,
            "video": false,
            "vote_average": 7.4,
            "title": "Dunkirk",
            "popularity": 59.353716,
            "poster_path": "https://image.tmdb.org/t/p/w300/ebSnODDg9lbsMIaWg2uAbjn7TO5.jpg",
            "original_language": "en",
            "original_title": "Dunkirk",
            "genre_ids": [
                28,
                18,
                36,
                53,
                10752
            ],
            "backdrop_path": "/4yjJNAgXBmzxpS6sogj4ftwd270.jpg",
            "adult": false,
            "overview": "The story of the miraculous evacuation of Allied soldiers from Belgium, Britain, Canada and France, who were cut off and surrounded by the German army from the beaches and harbour of Dunkirk between May 26th and June 4th 1940 during World War II.",
            "release_date": "2017-07-19"
        },
        {
            "vote_count": 9601,
            "id": 271110,
            "video": false,
            "vote_average": 7.2,
            "title": "Captain America: Civil War",
            "popularity": 59.27856,
            "poster_path": "https://image.tmdb.org/t/p/w300/kSBXou5Ac7vEqKd97wotJumyJvU.jpg",
            "original_language": "en",
            "original_title": "Captain America: Civil War",
            "genre_ids": [
                12,
                28,
                878
            ],
            "backdrop_path": "/m5O3SZvQ6EgD5XXXLPIP1wLppeW.jpg",
            "adult": false,
            "overview": "Following the events of Age of Ultron, the collective governments of the world pass an act designed to regulate all superhuman activity. This polarizes opinion amongst the Avengers, causing two factions to side with Iron Man or Captain America, which causes an epic battle between former allies.",
            "release_date": "2016-04-27"
        },
        {
            "vote_count": 3753,
            "id": 198184,
            "video": false,
            "vote_average": 6.6,
            "title": "Chappie",
            "popularity": 59.019368,
            "poster_path": "https://image.tmdb.org/t/p/w300/saF3HtAduvrP9ytXDxSnQJP3oqx.jpg",
            "original_language": "en",
            "original_title": "Chappie",
            "genre_ids": [
                80,
                28,
                878
            ],
            "backdrop_path": "/y5lG7TBpeOMG0jxAaTK0ghZSzBJ.jpg",
            "adult": false,
            "overview": "Every child comes into the world full of promise, and none more so than Chappie: he is gifted, special, a prodigy. Like any child, Chappie will come under the influence of his surroundings—some good, some bad—and he will rely on his heart and soul to find his way in the world and become his own man. But there's one thing that makes Chappie different from any one else: he is a robot.",
            "release_date": "2015-03-04"
        },
        {
            "vote_count": 10891,
            "id": 49026,
            "video": false,
            "vote_average": 7.6,
            "title": "The Dark Knight Rises",
            "popularity": 58.004625,
            "poster_path": "https://image.tmdb.org/t/p/w300/dEYnvnUfXrqvqeRSqvIEtmzhoA8.jpg",
            "original_language": "en",
            "original_title": "The Dark Knight Rises",
            "genre_ids": [
                28,
                80,
                18,
                53
            ],
            "backdrop_path": "/f6ljQGv7WnJuwBPty017oPWfqjx.jpg",
            "adult": false,
            "overview": "Following the death of District Attorney Harvey Dent, Batman assumes responsibility for Dent's crimes to protect the late attorney's reputation and is subsequently hunted by the Gotham City Police Department. Eight years later, Batman encounters the mysterious Selina Kyle and the villainous Bane, a new terrorist leader who overwhelms Gotham's finest. The Dark Knight resurfaces to protect a city that has branded him an enemy.",
            "release_date": "2012-07-16"
        },
        {
            "vote_count": 10784,
            "id": 120,
            "video": false,
            "vote_average": 8.2,
            "title": "The Lord of the Rings: The Fellowship of the Ring",
            "popularity": 57.518795,
            "poster_path": "https://image.tmdb.org/t/p/w300/bi9JddwTwBt3ixGLAiMAF7OXMbV.jpg",
            "original_language": "en",
            "original_title": "The Lord of the Rings: The Fellowship of the Ring",
            "genre_ids": [
                12,
                14,
                28
            ],
            "backdrop_path": "/pIUvQ9Ed35wlWhY2oU6OmwEsmzG.jpg",
            "adult": false,
            "overview": "Young hobbit Frodo Baggins, after inheriting a mysterious ring from his uncle Bilbo, must leave his home in order to keep it from falling into the hands of its evil creator. Along the way, a fellowship is formed to protect the ringbearer and make sure that the ring arrives at its final destination: Mt. Doom, the only place where it can be destroyed.",
            "release_date": "2001-12-18"
        },
        {
            "vote_count": 863,
            "id": 399035,
            "video": false,
            "vote_average": 5.8,
            "title": "The Commuter",
            "popularity": 57.402744,
            "poster_path": "https://image.tmdb.org/t/p/w300/rDeGK6FIUfVcXmuBdEORPAGPMNg.jpg",
            "original_language": "en",
            "original_title": "The Commuter",
            "genre_ids": [
                28,
                80,
                18,
                9648,
                53
            ],
            "backdrop_path": "/clmYuR1t4TtKcakIOvYIPrjyxDc.jpg",
            "adult": false,
            "overview": "A businessman on his daily commute home gets unwittingly caught up in a criminal conspiracy that threatens not only his life but the lives of those around him.",
            "release_date": "2018-01-11"
        },
        {
            "vote_count": 3398,
            "id": 76757,
            "video": false,
            "vote_average": 5.2,
            "title": "Jupiter Ascending",
            "popularity": 57.000365,
            "poster_path": "https://image.tmdb.org/t/p/w300/aMEsvTUklw0uZ3gk3Q6lAj6302a.jpg",
            "original_language": "en",
            "original_title": "Jupiter Ascending",
            "genre_ids": [
                878,
                14,
                28,
                12
            ],
            "backdrop_path": "/4liSXBZZdURI0c1Id1zLJo6Z3Gu.jpg",
            "adult": false,
            "overview": "In a universe where human genetic material is the most precious commodity, an impoverished young Earth woman becomes the key to strategic maneuvers and internal strife within a powerful dynasty…",
            "release_date": "2015-02-04"
        },
        {
            "vote_count": 3540,
            "id": 281338,
            "video": false,
            "vote_average": 6.9,
            "title": "War for the Planet of the Apes",
            "popularity": 56.927301,
            "poster_path": "https://image.tmdb.org/t/p/w300/3vYhLLxrTtZLysXtIWktmd57Snv.jpg",
            "original_language": "en",
            "original_title": "War for the Planet of the Apes",
            "genre_ids": [
                18,
                878,
                10752
            ],
            "backdrop_path": "/ulMscezy9YX0bhknvJbZoUgQxO5.jpg",
            "adult": false,
            "overview": "Caesar and his apes are forced into a deadly conflict with an army of humans led by a ruthless Colonel. After the apes suffer unimaginable losses, Caesar wrestles with his darker instincts and begins his own mythic quest to avenge his kind. As the journey finally brings them face to face, Caesar and the Colonel are pitted against each other in an epic battle that will determine the fate of both their species and the future of the planet.",
            "release_date": "2017-07-11"
        },
        {
            "vote_count": 11375,
            "id": 76341,
            "video": false,
            "vote_average": 7.3,
            "title": "Mad Max: Fury Road",
            "popularity": 56.866072,
            "poster_path": "https://image.tmdb.org/t/p/w300/kqjL17yufvn9OVLyXYpvtyrFfak.jpg",
            "original_language": "en",
            "original_title": "Mad Max: Fury Road",
            "genre_ids": [
                28,
                12,
                878,
                53
            ],
            "backdrop_path": "/phszHPFVhPHhMZgo0fWTKBDQsJA.jpg",
            "adult": false,
            "overview": "An apocalyptic story set in the furthest reaches of our planet, in a stark desert landscape where humanity is broken, and most everyone is crazed fighting for the necessities of life. Within this world exist two rebels on the run who just might be able to restore order. There's Max, a man of action and a man of few words, who seeks peace of mind following the loss of his wife and child in the aftermath of the chaos. And Furiosa, a woman of action and a woman who believes her path to survival may be achieved if she can make it across the desert back to her childhood homeland.",
            "release_date": "2015-05-13"
        },
        {
            "vote_count": 4194,
            "id": 293167,
            "video": false,
            "vote_average": 6.3,
            "title": "Kong: Skull Island",
            "popularity": 56.596635,
            "poster_path": "https://image.tmdb.org/t/p/w300/r2517Vz9EhDhj88qwbDVj8DCRZN.jpg",
            "original_language": "en",
            "original_title": "Kong: Skull Island",
            "genre_ids": [
                28,
                12,
                14
            ],
            "backdrop_path": "/pGwChWiAY1bdoxL79sXmaFBlYJH.jpg",
            "adult": false,
            "overview": "Explore the mysterious and dangerous home of the king of the apes as a team of explorers ventures deep inside the treacherous, primordial island.",
            "release_date": "2017-03-08"
        },
        {
            "vote_count": 7815,
            "id": 259316,
            "video": false,
            "vote_average": 7.3,
            "title": "Fantastic Beasts and Where to Find Them",
            "popularity": 56.262438,
            "poster_path": "https://image.tmdb.org/t/p/w300/1M91Bt3oGspda75H9eLqYZkJzgO.jpg",
            "original_language": "en",
            "original_title": "Fantastic Beasts and Where to Find Them",
            "genre_ids": [
                12,
                10751,
                14
            ],
            "backdrop_path": "/6I2tPx6KIiBB4TWFiWwNUzrbxUn.jpg",
            "adult": false,
            "overview": "In 1926, Newt Scamander arrives at the Magical Congress of the United States of America with a magically expanded briefcase, which houses a number of dangerous creatures and their habitats. When the creatures escape from the briefcase, it sends the American wizarding authorities after Newt, and threatens to strain even further the state of magical and non-magical relations.",
            "release_date": "2016-11-16"
        },
        {
            "vote_count": 5417,
            "id": 206647,
            "video": false,
            "vote_average": 6.3,
            "title": "Spectre",
            "popularity": 56.186519,
            "poster_path": "https://image.tmdb.org/t/p/w300/hE24GYddaxB9MVZl1CaiI86M3kp.jpg",
            "original_language": "en",
            "original_title": "Spectre",
            "genre_ids": [
                28,
                12,
                80
            ],
            "backdrop_path": "/wVTYlkKPKrljJfugXN7UlLNjtuJ.jpg",
            "adult": false,
            "overview": "A cryptic message from Bond’s past sends him on a trail to uncover a sinister organization. While M battles political forces to keep the secret service alive, Bond peels back the layers of deceit to reveal the terrible truth behind SPECTRE.",
            "release_date": "2015-10-26"
        },
        {
            "vote_count": 3511,
            "id": 156022,
            "video": false,
            "vote_average": 7.1,
            "title": "The Equalizer",
            "popularity": 56.172812,
            "poster_path": "https://image.tmdb.org/t/p/w300/2eQfjqlvPAxd9aLDs8DvsKLnfed.jpg",
            "original_language": "en",
            "original_title": "The Equalizer",
            "genre_ids": [
                53,
                28,
                80
            ],
            "backdrop_path": "/ms9oACSGJRjofNPA6HVtcgE5DiU.jpg",
            "adult": false,
            "overview": "In The Equalizer, Denzel Washington plays McCall, a man who believes he has put his mysterious past behind him and dedicated himself to beginning a new, quiet life. But when McCall meets Teri (Chloë Grace Moretz), a young girl under the control of ultra-violent Russian gangsters, he can’t stand idly by – he has to help her. Armed with hidden skills that allow him to serve vengeance against anyone who would brutalize the helpless, McCall comes out of his self-imposed retirement and finds his desire for justice reawakened. If someone has a problem, if the odds are stacked against them, if they have nowhere else to turn, McCall will help. He is The Equalizer.",
            "release_date": "2014-09-24"
        },
        {
            "vote_count": 1925,
            "id": 316029,
            "video": false,
            "vote_average": 8,
            "title": "The Greatest Showman",
            "popularity": 56.022267,
            "poster_path": "https://image.tmdb.org/t/p/w300/b9CeobiihCx1uG1tpw8hXmpi7nm.jpg",
            "original_language": "en",
            "original_title": "The Greatest Showman",
            "genre_ids": [
                18,
                10402
            ],
            "backdrop_path": "/fI4IM5xb94b3FWYpeMfY7orB3Gn.jpg",
            "adult": false,
            "overview": "The story of American showman P.T. Barnum, founder of the circus that became the famous traveling Ringling Bros. and Barnum & Bailey Circus.",
            "release_date": "2017-12-20"
        }
    ]
}